{
  "/auth/*": {
    "target": "http://localhost:8180",
    "secure": false,
    "logLevel": "debug",
    "changeOrigin": true
  },
  "/api/*": {
    "target": "http://localhost:8081",
    "secure": false,
    "logLevel": "debug",
    "changeOrigin": true,
    "pathRewrite": {
      "^/api": ""
    }
  }
}